…
# This is the original Metadata excel spreadsheet with renamed variables:
avonet$metadata
#> # A tibble: 71 × 5
#>    variable description                              variable.types units source
#>    <chr>    <chr>                                    <chr>          <chr> <chr> 
#>  1 sequence "Unique sequence identifier used by Bir… ID             <NA>  "HBW-…
#>  2 species1 "Species taxonomy according to BirdLife… categorical    <NA>  "HBW-…
#>  3 family1  "Family-level taxonomy according to Bir… categorical    <NA>  "HBW-…
#>  4 order1   "Order-level taxonomy according to Bird… categorical    <NA>  "HBW-…
#>  5 species2 "Species taxonomy according to eBird (f… categorical    <NA>  "eBir…
#>  6 family2  "Family-level taxonomy according to eBi… categorical    <NA>  "eBir…
#>  7 order2   "Order-level taxonomy according to eBir… categorical    <NA>  "eBir…
#>  8 species3 "Species taxonomy and nomenclature acco… categorical    <NA>  "Jetz…
#>  9 family3  "Family-level taxonomy and nomenclature… categorical    <NA>  "Jetz…
#> 10 order3   "Order-level taxonomy according to Bird… categorical    <NA>  "Jetz…
#> # ℹ 61 more rows

# This is the original AVONET_Raw_Data excel spreadsheet with renamed variables and excluded observations outlined in the avonet_exclude object written to the global environment (also removes empty variables with embargoed data):
avonet$raw_data
#> # A tibble: 90,019 × 24
#>    avibase.id       species1_birdlife      species2_ebird    ebird.species.group
#>    <chr>            <chr>                  <chr>             <chr>              
#>  1 AVIBASE-B3F5E5E2 Abeillia abeillei      Abeillia abeillei Abeillia abeillei  
#>  2 AVIBASE-B3F5E5E2 Abeillia abeillei      Abeillia abeillei Abeillia abeillei  
#>  3 AVIBASE-B3F5E5E2 Abeillia abeillei      Abeillia abeillei Abeillia abeillei  
#>  4 AVIBASE-B3F5E5E2 Abeillia abeillei      Abeillia abeillei Abeillia abeillei  
#>  5 AVIBASE-B3F5E5E2 Abeillia abeillei      Abeillia abeillei Abeillia abeillei  
#>  6 AVIBASE-684016CB Abroscopus albogularis Abroscopus albog… Abroscopus albogul…
#>  7 AVIBASE-684016CB Abroscopus albogularis Abroscopus albog… Abroscopus albogul…
#>  8 AVIBASE-684016CB Abroscopus albogularis Abroscopus albog… Abroscopus albogul…
#>  9 AVIBASE-684016CB Abroscopus albogularis Abroscopus albog… Abroscopus albogul…
#> 10 AVIBASE-684016CB Abroscopus albogularis Abroscopus albog… Abroscopus albogul…
#> # ℹ 90,009 more rows
#> # ℹ 20 more variables: species3_birdtree <chr>, data.type <fct>, source <chr>,
#> #   specimen.number <chr>, sex <fct>, age <fct>, country_wri <chr>,
#> #   beak.length_culmen <dbl>, beak.length_nares <dbl>, beak.width <dbl>,
#> #   beak.depth <dbl>, tarsus.length <dbl>, wing.length <dbl>,
#> #   kipps.distance <dbl>, secondary1 <dbl>, hand_wing.index <dbl>,
#> #   tail.length <dbl>, measurer <chr>, protocol <fct>, publication <chr>
…
#> ℹ In group 13: `species = "Acanthidops bairdii"`, `sex = F`.
#> Caused by warning:
#> ! no non-missing arguments to max; returning -Inf
#> ℹ Run `dplyr::last_dplyr_warnings()` to see the 5821 remaining warnings.
#> Warning: There were 5822 warnings in `summarise()`.
#> The first warning was:
#> ℹ In argument: `beak.length_culmen = .Primitive("min")(beak.length_culmen,
#>   na.rm = TRUE)`.
#> ℹ In group 13: `species = "Acanthidops bairdii"`, `sex = F`.
#> Caused by warning:
#> ! no non-missing arguments to min; returning Inf
#> ℹ Run `dplyr::last_dplyr_warnings()` to see the 5821 remaining warnings.
#> 
#> If present, NA values are included in count
#> # A tibble: 219,010 × 9
#>    species           sex   trait            count  mean median   max   min    sd
#>    <chr>             <fct> <chr>            <chr> <dbl>  <dbl> <dbl> <dbl> <dbl>
#>  1 Abeillia abeillei F     beak.length_cul… 2     14.3   14.3   14.8  13.8 0.707
#>  2 Abeillia abeillei F     beak.length_nar… 2     10     10     10.5   9.5 0.707
#>  3 Abeillia abeillei F     beak.width       2      1.1    1.1    1.2   1   0.141
#>  4 Abeillia abeillei F     beak.depth       2      1.75   1.75   2     1.5 0.354
#>  5 Abeillia abeillei F     tarsus.length    2      7.55   7.55   8     7.1 0.636
#>  6 Abeillia abeillei F     wing.length      2     45     45     45    45   0    
#>  7 Abeillia abeillei F     kipps.distance   2     30.5   30.5   31    30   0.707
#>  8 Abeillia abeillei F     secondary1       2     14.5   14.5   15    14   0.707
#>  9 Abeillia abeillei F     hand_wing.index  2     67.8   67.8   68.9  66.7 1.57 
#> 10 Abeillia abeillei F     tail.length      2     28.5   28.5   30    27   2.12 
#> # ℹ 219,000 more rows
```
…
